/text Apps      text 'Apps  1|DiSeal 2|       3|       4|Flash  5|Repose 6|       7|       8|       9|       0|Reraise'
/text AppsShift text 'Apps+ 1|Dia2   2|Slow   3|Para   4|Silenc 5|       6|       7|       8|       9|Sneak  0|Invis  '

/bind #1 /input /ja "Divine Seal" <me>
/bind #2 /echo Apps-2: not bound.
/bind #3 /echo Apps-3: not bound.
/bind #4 /input /ma "Flash" <t>
/bind #5 /input /ma "Repose" <stnpc>
/bind #6 /echo Apps-6: not bound.
/bind #7 /echo Apps-7: not bound.
/bind #8 /echo Apps-8: not bound.
/bind #9 /echo Apps-9: not bound.
/bind #0 /input /ma "Reraise" <me>

/bind #+1 /input /ma "Dia II" <t>
/bind #+2 /input /ma "Slow" <t>
/bind #+3 /input /ma "Paralyze" <t>
/bind #+4 /input /ma "Silence" <t>
/bind #+5 /echo Shift-Apps-5: not bound.
/bind #+6 /echo Shift-Apps-6: not bound.
/bind #+7 /echo Shift-Apps-7: not bound.
/bind #+8 /echo Shift-Apps-8: not bound.
/bind #+9 /input /ma "Sneak" <me>
/bind #+0 /input /ma "Invisible" <me>
