/input /ja "Addendum: White" <me>

/text WinSift   text 'Win+  1|Erase  2|Para-na3|Silena 4|Stona  5|Cursna 6|Viruna 7|Poisona8|Blindna9|Raise3 0|Rerais3'

/bind @+1 /input /ma "Erase" <stpc>
/bind @+2 /input /ma "Paralyna" <stpc>
/bind @+3 /input /ma "Silena" <stpc>
/bind @+4 /input /ma "Stona" <stpc>
/bind @+5 /input /ma "Cursna" <stpc>
/bind @+6 /input /ma "Viruna" <stpc>
/bind @+7 /input /ma "Poisona" <stpc>
/bind @+8 /input /ma "Blinda" <stpc>
/bind @+9 /input /ma "Raise III" <stpc>
/bind @+0 /input /ma "Reraise III" <me>
