/input /ma "Ifrit" <me>

/text Ctrl      text 'Ctrl  1|Merit  2|70Hybrd3|Fire4  4|1Blunt 5|1Hr    6|99Breth7|23Hybrd8|       9|Enfire 0|Warcry '

/bind ^1 /pet "Meteor Strike" <t>
/bind ^2 /pet "Flaming Crush" <t>
/bind ^3 /pet "Fire IV" <t>
/bind ^4 /pet "Punch" <t>
/bind ^5 /pet "Inferno" <t>
/bind ^6 /pet "Conflag Strike" <t>
/bind ^7 /pet "Burning Strike" <t>
/bind ^8 /echo Ctrl-8: not bound.
/bind ^9 /pet "Inferno Howl" <me>
/bind ^0 /pet "Crimson Howl" <me>
